{
 "SoundBanksInfo": {
  "Platform": "Windows",
  "BasePlatform": "Windows",
  "SchemaVersion": "12",
  "SoundbankVersion": "140",
  "RootPaths": {
   "ProjectRoot": "C:\\Users\\ELE60fae85658170\\Documents\\Projects\\whatstea\\WwiseTheTea\\",
   "SourceFilesRoot": "C:\\Users\\ELE60fae85658170\\Documents\\Projects\\whatstea\\WwiseTheTea\\.cache\\Windows\\",
   "SoundBanksRoot": "C:\\Users\\ELE60fae85658170\\Documents\\Projects\\whatstea\\Content\\WwiseAudio\\Windows\\",
   "ExternalSourcesInputFile": "",
   "ExternalSourcesOutputRoot": "C:\\Users\\ELE60fae85658170\\Documents\\Projects\\whatstea\\WwiseTheTea\\GeneratedSoundBanks\\Windows"
  },
  "DialogueEvents": [],
  "StreamedFiles": [],
  "MediaFilesNotInAnyBank": [],
  "SoundBanks": [
   {
    "Id": "1355168291",
    "GUID": "{701ECBBD-9C7B-4030-8CDB-749EE5D1C7B9}",
    "Language": "SFX",
    "Hash": "768142975",
    "ObjectPath": "Init",
    "ShortName": "Init",
    "Path": "Init.bnk",
    "IncludedAuxBusses": [
     {
      "Id": "3545700926",
      "Name": "Reverb1",
      "ObjectPath": "\\Master-Mixer Hierarchy\\Default Work Unit\\Master Audio Bus\\Reverb1",
      "GUID": "{980FA694-4EE4-4D1F-AC4B-F240CDE274DB}"
     }
    ]
   },
   {
    "Id": "1661994096",
    "GUID": "{6C44203C-62B5-4C4F-B6F7-EEF42C57CF03}",
    "Language": "SFX",
    "Hash": "1415224345",
    "ObjectPath": "\\SoundBanks\\Default Work Unit\\SoundBank",
    "ShortName": "SoundBank",
    "Path": "SoundBank.bnk",
    "IncludedEvents": [
     {
      "Id": "2568826979",
      "Name": "Play_AMB_Bird_Flute",
      "ObjectPath": "\\Events\\Default Work Unit\\Play_AMB_Bird_Flute",
      "GUID": "{C55B5CC8-A9FF-4786-A251-FA9F3D48C53D}",
      "MaxAttenuation": "4500.",
      "DurationType": "Infinite",
      "IncludedMemoryFiles": [
       {
        "Id": "40549057",
        "Language": "SFX",
        "ShortName": "Bird_Flute.wav",
        "Path": "SFX\\Bird_Flute_D8820B13.wem"
       },
       {
        "Id": "43163029",
        "Language": "SFX",
        "ShortName": "Bird_Flute.wav",
        "Path": "SFX\\Bird_Flute_59BD0BE2.wem"
       },
       {
        "Id": "140925185",
        "Language": "SFX",
        "ShortName": "Bird_Flute.wav",
        "Path": "SFX\\Bird_Flute_FC220386.wem"
       },
       {
        "Id": "193037000",
        "Language": "SFX",
        "ShortName": "Bird_Flute.wav",
        "Path": "SFX\\Bird_Flute_35FA7C14.wem"
       },
       {
        "Id": "364664161",
        "Language": "SFX",
        "ShortName": "Bird_Flute.wav",
        "Path": "SFX\\Bird_Flute_6C99AB04.wem"
       },
       {
        "Id": "385073679",
        "Language": "SFX",
        "ShortName": "Bird_Flute.wav",
        "Path": "SFX\\Bird_Flute_8A26DFB9.wem"
       },
       {
        "Id": "396841254",
        "Language": "SFX",
        "ShortName": "Bird_Flute.wav",
        "Path": "SFX\\Bird_Flute_71DC86FA.wem"
       },
       {
        "Id": "557593181",
        "Language": "SFX",
        "ShortName": "Bird_Flute.wav",
        "Path": "SFX\\Bird_Flute_763408EC.wem"
       },
       {
        "Id": "607999496",
        "Language": "SFX",
        "ShortName": "Bird_Flute.wav",
        "Path": "SFX\\Bird_Flute_1EC82A3B.wem"
       },
       {
        "Id": "618244692",
        "Language": "SFX",
        "ShortName": "Bird_Flute.wav",
        "Path": "SFX\\Bird_Flute_2ABC8C78.wem"
       },
       {
        "Id": "695191779",
        "Language": "SFX",
        "ShortName": "Bird_Flute.wav",
        "Path": "SFX\\Bird_Flute_28FADD63.wem"
       },
       {
        "Id": "753428886",
        "Language": "SFX",
        "ShortName": "Bird_Flute.wav",
        "Path": "SFX\\Bird_Flute_967E187E.wem"
       },
       {
        "Id": "786927745",
        "Language": "SFX",
        "ShortName": "Bird_Flute.wav",
        "Path": "SFX\\Bird_Flute_5669C539.wem"
       },
       {
        "Id": "925396000",
        "Language": "SFX",
        "ShortName": "Bird_Flute.wav",
        "Path": "SFX\\Bird_Flute_85E15E9D.wem"
       },
       {
        "Id": "983386127",
        "Language": "SFX",
        "ShortName": "Bird_Flute.wav",
        "Path": "SFX\\Bird_Flute_C55BBC98.wem"
       }
      ],
      "AuxBusSends": [
       {
        "Id": "3545700926",
        "Name": "Reverb1",
        "ObjectPath": "\\Master-Mixer Hierarchy\\Default Work Unit\\Master Audio Bus\\Reverb1",
        "GUID": "{980FA694-4EE4-4D1F-AC4B-F240CDE274DB}"
       }
      ]
     },
     {
      "Id": "3499593262",
      "Name": "Play_AMB_Bird_Flute_high",
      "ObjectPath": "\\Events\\Default Work Unit\\Play_AMB_Bird_Flute_high",
      "GUID": "{C07A72B7-F15D-4954-854F-7E0CBD1E3A46}",
      "MaxAttenuation": "4500.",
      "DurationType": "Infinite",
      "IncludedMemoryFiles": [
       {
        "Id": "40549057",
        "Language": "SFX",
        "ShortName": "Bird_Flute.wav",
        "Path": "SFX\\Bird_Flute_D8820B13.wem"
       },
       {
        "Id": "43163029",
        "Language": "SFX",
        "ShortName": "Bird_Flute.wav",
        "Path": "SFX\\Bird_Flute_59BD0BE2.wem"
       },
       {
        "Id": "127260948",
        "Language": "SFX",
        "ShortName": "Bird_Flute.wav",
        "Path": "SFX\\Bird_Flute_8830E088.wem"
       },
       {
        "Id": "140925185",
        "Language": "SFX",
        "ShortName": "Bird_Flute.wav",
        "Path": "SFX\\Bird_Flute_FC220386.wem"
       },
       {
        "Id": "193037000",
        "Language": "SFX",
        "ShortName": "Bird_Flute.wav",
        "Path": "SFX\\Bird_Flute_35FA7C14.wem"
       },
       {
        "Id": "364664161",
        "Language": "SFX",
        "ShortName": "Bird_Flute.wav",
        "Path": "SFX\\Bird_Flute_6C99AB04.wem"
       },
       {
        "Id": "385073679",
        "Language": "SFX",
        "ShortName": "Bird_Flute.wav",
        "Path": "SFX\\Bird_Flute_8A26DFB9.wem"
       },
       {
        "Id": "396841254",
        "Language": "SFX",
        "ShortName": "Bird_Flute.wav",
        "Path": "SFX\\Bird_Flute_71DC86FA.wem"
       },
       {
        "Id": "607999496",
        "Language": "SFX",
        "ShortName": "Bird_Flute.wav",
        "Path": "SFX\\Bird_Flute_1EC82A3B.wem"
       },
       {
        "Id": "618244692",
        "Language": "SFX",
        "ShortName": "Bird_Flute.wav",
        "Path": "SFX\\Bird_Flute_2ABC8C78.wem"
       },
       {
        "Id": "753428886",
        "Language": "SFX",
        "ShortName": "Bird_Flute.wav",
        "Path": "SFX\\Bird_Flute_967E187E.wem"
       },
       {
        "Id": "786927745",
        "Language": "SFX",
        "ShortName": "Bird_Flute.wav",
        "Path": "SFX\\Bird_Flute_5669C539.wem"
       }
      ],
      "AuxBusSends": [
       {
        "Id": "3545700926",
        "Name": "Reverb1",
        "ObjectPath": "\\Master-Mixer Hierarchy\\Default Work Unit\\Master Audio Bus\\Reverb1",
        "GUID": "{980FA694-4EE4-4D1F-AC4B-F240CDE274DB}"
       }
      ]
     },
     {
      "Id": "3522758067",
      "Name": "Play_AMB_Bird_Flute_seq",
      "ObjectPath": "\\Events\\Default Work Unit\\Play_AMB_Bird_Flute_seq",
      "GUID": "{12D690FD-7537-4E5E-8614-96B942DBA0F2}",
      "MaxAttenuation": "4500.",
      "DurationType": "Infinite",
      "IncludedMemoryFiles": [
       {
        "Id": "40549057",
        "Language": "SFX",
        "ShortName": "Bird_Flute.wav",
        "Path": "SFX\\Bird_Flute_D8820B13.wem"
       },
       {
        "Id": "43163029",
        "Language": "SFX",
        "ShortName": "Bird_Flute.wav",
        "Path": "SFX\\Bird_Flute_59BD0BE2.wem"
       },
       {
        "Id": "52310859",
        "Language": "SFX",
        "ShortName": "Bird_Flute.wav",
        "Path": "SFX\\Bird_Flute_2B3532FD.wem"
       },
       {
        "Id": "127260948",
        "Language": "SFX",
        "ShortName": "Bird_Flute.wav",
        "Path": "SFX\\Bird_Flute_8830E088.wem"
       },
       {
        "Id": "140925185",
        "Language": "SFX",
        "ShortName": "Bird_Flute.wav",
        "Path": "SFX\\Bird_Flute_FC220386.wem"
       },
       {
        "Id": "193037000",
        "Language": "SFX",
        "ShortName": "Bird_Flute.wav",
        "Path": "SFX\\Bird_Flute_35FA7C14.wem"
       },
       {
        "Id": "364664161",
        "Language": "SFX",
        "ShortName": "Bird_Flute.wav",
        "Path": "SFX\\Bird_Flute_6C99AB04.wem"
       },
       {
        "Id": "385073679",
        "Language": "SFX",
        "ShortName": "Bird_Flute.wav",
        "Path": "SFX\\Bird_Flute_8A26DFB9.wem"
       },
       {
        "Id": "396841254",
        "Language": "SFX",
        "ShortName": "Bird_Flute.wav",
        "Path": "SFX\\Bird_Flute_71DC86FA.wem"
       },
       {
        "Id": "557593181",
        "Language": "SFX",
        "ShortName": "Bird_Flute.wav",
        "Path": "SFX\\Bird_Flute_763408EC.wem"
       },
       {
        "Id": "607999496",
        "Language": "SFX",
        "ShortName": "Bird_Flute.wav",
        "Path": "SFX\\Bird_Flute_1EC82A3B.wem"
       },
       {
        "Id": "618244692",
        "Language": "SFX",
        "ShortName": "Bird_Flute.wav",
        "Path": "SFX\\Bird_Flute_2ABC8C78.wem"
       },
       {
        "Id": "695191779",
        "Language": "SFX",
        "ShortName": "Bird_Flute.wav",
        "Path": "SFX\\Bird_Flute_28FADD63.wem"
       },
       {
        "Id": "753428886",
        "Language": "SFX",
        "ShortName": "Bird_Flute.wav",
        "Path": "SFX\\Bird_Flute_967E187E.wem"
       },
       {
        "Id": "786927745",
        "Language": "SFX",
        "ShortName": "Bird_Flute.wav",
        "Path": "SFX\\Bird_Flute_5669C539.wem"
       },
       {
        "Id": "835477724",
        "Language": "SFX",
        "ShortName": "Bird_Flute.wav",
        "Path": "SFX\\Bird_Flute_87D960D4.wem"
       },
       {
        "Id": "925396000",
        "Language": "SFX",
        "ShortName": "Bird_Flute.wav",
        "Path": "SFX\\Bird_Flute_85E15E9D.wem"
       },
       {
        "Id": "1022962187",
        "Language": "SFX",
        "ShortName": "Bird_Flute.wav",
        "Path": "SFX\\Bird_Flute_4B4308AB.wem"
       },
       {
        "Id": "1050123805",
        "Language": "SFX",
        "ShortName": "Bird_Flute.wav",
        "Path": "SFX\\Bird_Flute_B8CB8029.wem"
       }
      ],
      "AuxBusSends": [
       {
        "Id": "3545700926",
        "Name": "Reverb1",
        "ObjectPath": "\\Master-Mixer Hierarchy\\Default Work Unit\\Master Audio Bus\\Reverb1",
        "GUID": "{980FA694-4EE4-4D1F-AC4B-F240CDE274DB}"
       }
      ]
     },
     {
      "Id": "167584704",
      "Name": "Play_AMB_Bird_Flute_Staccato",
      "ObjectPath": "\\Events\\Default Work Unit\\Play_AMB_Bird_Flute_Staccato",
      "GUID": "{4FC70FDE-0F0F-468D-A9A8-4C5D504E283A}",
      "MaxAttenuation": "4500.",
      "DurationType": "Infinite",
      "IncludedMemoryFiles": [
       {
        "Id": "26979249",
        "Language": "SFX",
        "ShortName": "Bird_Flute_Staccato.wav",
        "Path": "SFX\\Bird_Flute_Staccato_DB0A8010.wem"
       },
       {
        "Id": "138038980",
        "Language": "SFX",
        "ShortName": "Bird_Flute_Staccato.wav",
        "Path": "SFX\\Bird_Flute_Staccato_386614DD.wem"
       },
       {
        "Id": "159962644",
        "Language": "SFX",
        "ShortName": "Bird_Flute_Staccato.wav",
        "Path": "SFX\\Bird_Flute_Staccato_53B5F14E.wem"
       },
       {
        "Id": "196912143",
        "Language": "SFX",
        "ShortName": "Bird_Flute_Staccato.wav",
        "Path": "SFX\\Bird_Flute_Staccato_EBA50680.wem"
       },
       {
        "Id": "547487674",
        "Language": "SFX",
        "ShortName": "Bird_Flute_Staccato.wav",
        "Path": "SFX\\Bird_Flute_Staccato_99DE077F.wem"
       },
       {
        "Id": "923110316",
        "Language": "SFX",
        "ShortName": "Bird_Flute_Staccato.wav",
        "Path": "SFX\\Bird_Flute_Staccato_527E7C1D.wem"
       }
      ],
      "AuxBusSends": [
       {
        "Id": "3545700926",
        "Name": "Reverb1",
        "ObjectPath": "\\Master-Mixer Hierarchy\\Default Work Unit\\Master Audio Bus\\Reverb1",
        "GUID": "{980FA694-4EE4-4D1F-AC4B-F240CDE274DB}"
       }
      ]
     },
     {
      "Id": "833074464",
      "Name": "Play_AMB_Bird_Flute_Staccato_Slow",
      "ObjectPath": "\\Events\\Default Work Unit\\Play_AMB_Bird_Flute_Staccato_Slow",
      "GUID": "{9B7AA0A7-CDC8-4B65-A3AE-8CA0A1124135}",
      "MaxAttenuation": "4500.",
      "DurationType": "Infinite",
      "IncludedMemoryFiles": [
       {
        "Id": "26979249",
        "Language": "SFX",
        "ShortName": "Bird_Flute_Staccato.wav",
        "Path": "SFX\\Bird_Flute_Staccato_DB0A8010.wem"
       },
       {
        "Id": "138038980",
        "Language": "SFX",
        "ShortName": "Bird_Flute_Staccato.wav",
        "Path": "SFX\\Bird_Flute_Staccato_386614DD.wem"
       },
       {
        "Id": "159962644",
        "Language": "SFX",
        "ShortName": "Bird_Flute_Staccato.wav",
        "Path": "SFX\\Bird_Flute_Staccato_53B5F14E.wem"
       },
       {
        "Id": "196912143",
        "Language": "SFX",
        "ShortName": "Bird_Flute_Staccato.wav",
        "Path": "SFX\\Bird_Flute_Staccato_EBA50680.wem"
       },
       {
        "Id": "547487674",
        "Language": "SFX",
        "ShortName": "Bird_Flute_Staccato.wav",
        "Path": "SFX\\Bird_Flute_Staccato_99DE077F.wem"
       },
       {
        "Id": "923110316",
        "Language": "SFX",
        "ShortName": "Bird_Flute_Staccato.wav",
        "Path": "SFX\\Bird_Flute_Staccato_527E7C1D.wem"
       }
      ],
      "AuxBusSends": [
       {
        "Id": "3545700926",
        "Name": "Reverb1",
        "ObjectPath": "\\Master-Mixer Hierarchy\\Default Work Unit\\Master Audio Bus\\Reverb1",
        "GUID": "{980FA694-4EE4-4D1F-AC4B-F240CDE274DB}"
       }
      ]
     },
     {
      "Id": "2977601534",
      "Name": "Play_AMB_Bird_Flute_Staccato_Slow_precise",
      "ObjectPath": "\\Events\\Default Work Unit\\Play_AMB_Bird_Flute_Staccato_Slow_precise",
      "GUID": "{3F4BB670-228E-4EBA-A2B4-43D4D6668E12}",
      "MaxAttenuation": "4500.",
      "DurationType": "Infinite",
      "IncludedMemoryFiles": [
       {
        "Id": "26979249",
        "Language": "SFX",
        "ShortName": "Bird_Flute_Staccato.wav",
        "Path": "SFX\\Bird_Flute_Staccato_DB0A8010.wem"
       },
       {
        "Id": "138038980",
        "Language": "SFX",
        "ShortName": "Bird_Flute_Staccato.wav",
        "Path": "SFX\\Bird_Flute_Staccato_386614DD.wem"
       },
       {
        "Id": "159962644",
        "Language": "SFX",
        "ShortName": "Bird_Flute_Staccato.wav",
        "Path": "SFX\\Bird_Flute_Staccato_53B5F14E.wem"
       },
       {
        "Id": "196912143",
        "Language": "SFX",
        "ShortName": "Bird_Flute_Staccato.wav",
        "Path": "SFX\\Bird_Flute_Staccato_EBA50680.wem"
       },
       {
        "Id": "547487674",
        "Language": "SFX",
        "ShortName": "Bird_Flute_Staccato.wav",
        "Path": "SFX\\Bird_Flute_Staccato_99DE077F.wem"
       },
       {
        "Id": "923110316",
        "Language": "SFX",
        "ShortName": "Bird_Flute_Staccato.wav",
        "Path": "SFX\\Bird_Flute_Staccato_527E7C1D.wem"
       }
      ],
      "AuxBusSends": [
       {
        "Id": "3545700926",
        "Name": "Reverb1",
        "ObjectPath": "\\Master-Mixer Hierarchy\\Default Work Unit\\Master Audio Bus\\Reverb1",
        "GUID": "{980FA694-4EE4-4D1F-AC4B-F240CDE274DB}"
       }
      ]
     },
     {
      "Id": "3492198551",
      "Name": "Play_AMB_Bird_Flying_Away",
      "ObjectPath": "\\Events\\Default Work Unit\\Play_AMB_Bird_Flying_Away",
      "GUID": "{EE2930B8-90E2-48AE-8076-6C3F1830179A}",
      "MaxAttenuation": "4500.",
      "DurationType": "Infinite",
      "IncludedMemoryFiles": [
       {
        "Id": "67683457",
        "Language": "SFX",
        "ShortName": "Bird_Flying_Away.wav",
        "Path": "SFX\\Bird_Flying_Away_363EE819.wem"
       },
       {
        "Id": "358716947",
        "Language": "SFX",
        "ShortName": "Bird_Flying_Away.wav",
        "Path": "SFX\\Bird_Flying_Away_64CC09C4.wem"
       },
       {
        "Id": "386289240",
        "Language": "SFX",
        "ShortName": "Bird_Flying_Away.wav",
        "Path": "SFX\\Bird_Flying_Away_5C08040C.wem"
       },
       {
        "Id": "925255633",
        "Language": "SFX",
        "ShortName": "Bird_Flying_Away.wav",
        "Path": "SFX\\Bird_Flying_Away_35946B4A.wem"
       }
      ],
      "AuxBusSends": [
       {
        "Id": "3545700926",
        "Name": "Reverb1",
        "ObjectPath": "\\Master-Mixer Hierarchy\\Default Work Unit\\Master Audio Bus\\Reverb1",
        "GUID": "{980FA694-4EE4-4D1F-AC4B-F240CDE274DB}"
       }
      ]
     },
     {
      "Id": "842005172",
      "Name": "Play_AMB_Bird_High_Pitch",
      "ObjectPath": "\\Events\\Default Work Unit\\Play_AMB_Bird_High_Pitch",
      "GUID": "{D95A0C1E-A569-4E4D-9CCF-67F20B4A5683}",
      "MaxAttenuation": "4500.",
      "DurationType": "Infinite",
      "IncludedMemoryFiles": [
       {
        "Id": "87102683",
        "Language": "SFX",
        "ShortName": "pieces_01.wav",
        "Path": "SFX\\pieces_01_227C8588.wem"
       },
       {
        "Id": "123532947",
        "Language": "SFX",
        "ShortName": "pieces_01.wav",
        "Path": "SFX\\pieces_01_26F41DDC.wem"
       },
       {
        "Id": "712678922",
        "Language": "SFX",
        "ShortName": "pieces_01.wav",
        "Path": "SFX\\pieces_01_5B6B4B5B.wem"
       },
       {
        "Id": "736757968",
        "Language": "SFX",
        "ShortName": "pieces_01.wav",
        "Path": "SFX\\pieces_01_16FFA777.wem"
       }
      ],
      "AuxBusSends": [
       {
        "Id": "3545700926",
        "Name": "Reverb1",
        "ObjectPath": "\\Master-Mixer Hierarchy\\Default Work Unit\\Master Audio Bus\\Reverb1",
        "GUID": "{980FA694-4EE4-4D1F-AC4B-F240CDE274DB}"
       }
      ]
     },
     {
      "Id": "1410296537",
      "Name": "Play_AMB_Branch_Cracks",
      "ObjectPath": "\\Events\\Default Work Unit\\Play_AMB_Branch_Cracks",
      "GUID": "{43386E23-BC83-4623-9E43-E7CB6222AB77}",
      "MaxAttenuation": "2000.",
      "DurationType": "Infinite",
      "IncludedMemoryFiles": [
       {
        "Id": "351253040",
        "Language": "SFX",
        "ShortName": "Branch_Crack_01.wav",
        "Path": "SFX\\Branch_Crack_01_3719B9CC.wem"
       },
       {
        "Id": "452375251",
        "Language": "SFX",
        "ShortName": "Branch_Crack_01.wav",
        "Path": "SFX\\Branch_Crack_01_3F75BDB9.wem"
       }
      ]
     },
     {
      "Id": "4109559027",
      "Name": "Play_AMB_Bridge_Wood_Creak",
      "ObjectPath": "\\Events\\Default Work Unit\\Play_AMB_Bridge_Wood_Creak",
      "GUID": "{4ED84284-E96E-4F94-83F7-905F78DA7309}",
      "MaxAttenuation": "2000.",
      "DurationType": "Infinite",
      "IncludedMemoryFiles": [
       {
        "Id": "188490431",
        "Language": "SFX",
        "ShortName": "24 Metal And Wood Door Open Slow With Variety Of Creaks  Squeaks And Good Close At Tail.wav",
        "Path": "SFX\\24 Metal And Wood Door Open Slow With Variety Of Creaks  Squeaks And Good Close At Tail_5FFD8C41.wem"
       },
       {
        "Id": "649504866",
        "Language": "SFX",
        "ShortName": "24 Metal And Wood Door Open Slow With Variety Of Creaks  Squeaks And Good Close At Tail.wav",
        "Path": "SFX\\24 Metal And Wood Door Open Slow With Variety Of Creaks  Squeaks And Good Close At Tail_CEB6F9A6.wem"
       },
       {
        "Id": "780579796",
        "Language": "SFX",
        "ShortName": "24 Metal And Wood Door Open Slow With Variety Of Creaks  Squeaks And Good Close At Tail.wav",
        "Path": "SFX\\24 Metal And Wood Door Open Slow With Variety Of Creaks  Squeaks And Good Close At Tail_CF5E3658.wem"
       },
       {
        "Id": "1065843204",
        "Language": "SFX",
        "ShortName": "24 Metal And Wood Door Open Slow With Variety Of Creaks  Squeaks And Good Close At Tail.wav",
        "Path": "SFX\\24 Metal And Wood Door Open Slow With Variety Of Creaks  Squeaks And Good Close At Tail_93C03B7A.wem"
       }
      ]
     },
     {
      "Id": "913947577",
      "Name": "Play_AMB_Brush_Rustle",
      "ObjectPath": "\\Events\\Default Work Unit\\Play_AMB_Brush_Rustle",
      "GUID": "{BD43433D-877F-4DF2-8A87-770AD15E6155}",
      "MaxAttenuation": "4500.",
      "DurationType": "Infinite",
      "IncludedMemoryFiles": [
       {
        "Id": "100821258",
        "Language": "SFX",
        "ShortName": "Brush_Rustle.wav",
        "Path": "SFX\\Brush_Rustle_5BA2D4BE.wem"
       },
       {
        "Id": "106533842",
        "Language": "SFX",
        "ShortName": "Brush_Rustle.wav",
        "Path": "SFX\\Brush_Rustle_A67F0EA4.wem"
       },
       {
        "Id": "224858527",
        "Language": "SFX",
        "ShortName": "Brush_Rustle.wav",
        "Path": "SFX\\Brush_Rustle_5C6C8BD5.wem"
       },
       {
        "Id": "264737741",
        "Language": "SFX",
        "ShortName": "Brush_Rustle.wav",
        "Path": "SFX\\Brush_Rustle_4F1AFD62.wem"
       },
       {
        "Id": "352131885",
        "Language": "SFX",
        "ShortName": "Brush_Rustle.wav",
        "Path": "SFX\\Brush_Rustle_18D13992.wem"
       },
       {
        "Id": "1045434826",
        "Language": "SFX",
        "ShortName": "Brush_Rustle.wav",
        "Path": "SFX\\Brush_Rustle_AE768012.wem"
       }
      ],
      "AuxBusSends": [
       {
        "Id": "3545700926",
        "Name": "Reverb1",
        "ObjectPath": "\\Master-Mixer Hierarchy\\Default Work Unit\\Master Audio Bus\\Reverb1",
        "GUID": "{980FA694-4EE4-4D1F-AC4B-F240CDE274DB}"
       }
      ]
     },
     {
      "Id": "2424822757",
      "Name": "Play_AMB_Brush_Rustle_01",
      "ObjectPath": "\\Events\\Default Work Unit\\Play_AMB_Brush_Rustle_01",
      "GUID": "{C14886E9-949B-47C0-84DB-EADA0066D7CB}",
      "MaxAttenuation": "2000.",
      "DurationType": "Infinite",
      "IncludedMemoryFiles": [
       {
        "Id": "100821258",
        "Language": "SFX",
        "ShortName": "Brush_Rustle.wav",
        "Path": "SFX\\Brush_Rustle_5BA2D4BE.wem"
       },
       {
        "Id": "106533842",
        "Language": "SFX",
        "ShortName": "Brush_Rustle.wav",
        "Path": "SFX\\Brush_Rustle_A67F0EA4.wem"
       },
       {
        "Id": "224858527",
        "Language": "SFX",
        "ShortName": "Brush_Rustle.wav",
        "Path": "SFX\\Brush_Rustle_5C6C8BD5.wem"
       },
       {
        "Id": "264737741",
        "Language": "SFX",
        "ShortName": "Brush_Rustle.wav",
        "Path": "SFX\\Brush_Rustle_4F1AFD62.wem"
       },
       {
        "Id": "352131885",
        "Language": "SFX",
        "ShortName": "Brush_Rustle.wav",
        "Path": "SFX\\Brush_Rustle_18D13992.wem"
       },
       {
        "Id": "1045434826",
        "Language": "SFX",
        "ShortName": "Brush_Rustle.wav",
        "Path": "SFX\\Brush_Rustle_AE768012.wem"
       }
      ]
     },
     {
      "Id": "2721212287",
      "Name": "Play_AMB_Frog",
      "ObjectPath": "\\Events\\Default Work Unit\\Play_AMB_Frog",
      "GUID": "{86DED8DB-A920-461E-9483-B10199883ADC}",
      "MaxAttenuation": "4500.",
      "DurationType": "Infinite",
      "IncludedMemoryFiles": [
       {
        "Id": "62211835",
        "Language": "SFX",
        "ShortName": "Frog Croaks clean.wav",
        "Path": "SFX\\Frog Croaks clean_B81E3D33.wem"
       },
       {
        "Id": "112340764",
        "Language": "SFX",
        "ShortName": "Frog Croaks clean.wav",
        "Path": "SFX\\Frog Croaks clean_E8060FF4.wem"
       },
       {
        "Id": "121220818",
        "Language": "SFX",
        "ShortName": "Frog Croaks clean.wav",
        "Path": "SFX\\Frog Croaks clean_B5B08044.wem"
       },
       {
        "Id": "199025117",
        "Language": "SFX",
        "ShortName": "Frog Croaks clean.wav",
        "Path": "SFX\\Frog Croaks clean_0842FB51.wem"
       },
       {
        "Id": "223086866",
        "Language": "SFX",
        "ShortName": "Frog Croaks clean.wav",
        "Path": "SFX\\Frog Croaks clean_4A7060CC.wem"
       },
       {
        "Id": "224886611",
        "Language": "SFX",
        "ShortName": "Frog Croaks clean.wav",
        "Path": "SFX\\Frog Croaks clean_89A848CE.wem"
       },
       {
        "Id": "253242246",
        "Language": "SFX",
        "ShortName": "Frog Croaks clean.wav",
        "Path": "SFX\\Frog Croaks clean_78274A74.wem"
       },
       {
        "Id": "432025168",
        "Language": "SFX",
        "ShortName": "Frog Croaks clean.wav",
        "Path": "SFX\\Frog Croaks clean_962DC3DA.wem"
       },
       {
        "Id": "504668692",
        "Language": "SFX",
        "ShortName": "Frog Croaks clean.wav",
        "Path": "SFX\\Frog Croaks clean_7A2CA51E.wem"
       },
       {
        "Id": "560983445",
        "Language": "SFX",
        "ShortName": "Frog Croaks clean.wav",
        "Path": "SFX\\Frog Croaks clean_C7985504.wem"
       },
       {
        "Id": "609962574",
        "Language": "SFX",
        "ShortName": "Frog Croaks clean.wav",
        "Path": "SFX\\Frog Croaks clean_CD42B03C.wem"
       },
       {
        "Id": "694177833",
        "Language": "SFX",
        "ShortName": "Frog Croaks clean.wav",
        "Path": "SFX\\Frog Croaks clean_F8C539FC.wem"
       },
       {
        "Id": "713876212",
        "Language": "SFX",
        "ShortName": "Frog Croaks clean.wav",
        "Path": "SFX\\Frog Croaks clean_C5A6111E.wem"
       },
       {
        "Id": "759322841",
        "Language": "SFX",
        "ShortName": "Frog Croaks clean.wav",
        "Path": "SFX\\Frog Croaks clean_74865B34.wem"
       },
       {
        "Id": "1021142504",
        "Language": "SFX",
        "ShortName": "Frog Croaks clean.wav",
        "Path": "SFX\\Frog Croaks clean_DE50C50E.wem"
       }
      ]
     },
     {
      "Id": "3174729342",
      "Name": "Play_AMB_Insect_Criii",
      "ObjectPath": "\\Events\\Default Work Unit\\Play_AMB_Insect_Criii",
      "GUID": "{6AC5DE8D-8E03-462D-A402-037D831E08CB}",
      "MaxAttenuation": "4500.",
      "DurationType": "Infinite",
      "IncludedMemoryFiles": [
       {
        "Id": "62211835",
        "Language": "SFX",
        "ShortName": "Frog Croaks clean.wav",
        "Path": "SFX\\Frog Croaks clean_B81E3D33.wem"
       },
       {
        "Id": "112340764",
        "Language": "SFX",
        "ShortName": "Frog Croaks clean.wav",
        "Path": "SFX\\Frog Croaks clean_E8060FF4.wem"
       },
       {
        "Id": "121220818",
        "Language": "SFX",
        "ShortName": "Frog Croaks clean.wav",
        "Path": "SFX\\Frog Croaks clean_B5B08044.wem"
       },
       {
        "Id": "199025117",
        "Language": "SFX",
        "ShortName": "Frog Croaks clean.wav",
        "Path": "SFX\\Frog Croaks clean_0842FB51.wem"
       },
       {
        "Id": "223086866",
        "Language": "SFX",
        "ShortName": "Frog Croaks clean.wav",
        "Path": "SFX\\Frog Croaks clean_4A7060CC.wem"
       },
       {
        "Id": "224886611",
        "Language": "SFX",
        "ShortName": "Frog Croaks clean.wav",
        "Path": "SFX\\Frog Croaks clean_89A848CE.wem"
       },
       {
        "Id": "253242246",
        "Language": "SFX",
        "ShortName": "Frog Croaks clean.wav",
        "Path": "SFX\\Frog Croaks clean_78274A74.wem"
       },
       {
        "Id": "432025168",
        "Language": "SFX",
        "ShortName": "Frog Croaks clean.wav",
        "Path": "SFX\\Frog Croaks clean_962DC3DA.wem"
       },
       {
        "Id": "504668692",
        "Language": "SFX",
        "ShortName": "Frog Croaks clean.wav",
        "Path": "SFX\\Frog Croaks clean_7A2CA51E.wem"
       },
       {
        "Id": "560983445",
        "Language": "SFX",
        "ShortName": "Frog Croaks clean.wav",
        "Path": "SFX\\Frog Croaks clean_C7985504.wem"
       },
       {
        "Id": "609962574",
        "Language": "SFX",
        "ShortName": "Frog Croaks clean.wav",
        "Path": "SFX\\Frog Croaks clean_CD42B03C.wem"
       },
       {
        "Id": "694177833",
        "Language": "SFX",
        "ShortName": "Frog Croaks clean.wav",
        "Path": "SFX\\Frog Croaks clean_F8C539FC.wem"
       },
       {
        "Id": "713876212",
        "Language": "SFX",
        "ShortName": "Frog Croaks clean.wav",
        "Path": "SFX\\Frog Croaks clean_C5A6111E.wem"
       },
       {
        "Id": "759322841",
        "Language": "SFX",
        "ShortName": "Frog Croaks clean.wav",
        "Path": "SFX\\Frog Croaks clean_74865B34.wem"
       },
       {
        "Id": "1021142504",
        "Language": "SFX",
        "ShortName": "Frog Croaks clean.wav",
        "Path": "SFX\\Frog Croaks clean_DE50C50E.wem"
       }
      ]
     },
     {
      "Id": "2884690628",
      "Name": "Play_AMB_Insect_Grigri",
      "ObjectPath": "\\Events\\Default Work Unit\\Play_AMB_Insect_Grigri",
      "GUID": "{D09E7765-67C6-4270-A072-07616870B078}",
      "MaxAttenuation": "4500.",
      "DurationType": "OneShot",
      "DurationMin": "53.032982",
      "DurationMax": "88.388298",
      "IncludedMemoryFiles": [
       {
        "Id": "202612361",
        "Language": "SFX",
        "ShortName": "Bird_Woodpecker.wav",
        "Path": "SFX\\Bird_Woodpecker_3F75BDB9.wem"
       }
      ]
     },
     {
      "Id": "203641195",
      "Name": "Play_AMB_Insect_High_Pitch",
      "ObjectPath": "\\Events\\Default Work Unit\\Play_AMB_Insect_High_Pitch",
      "GUID": "{DAC2EFBC-EBA3-4011-B49A-30D5EA657F5F}",
      "MaxAttenuation": "4500.",
      "DurationType": "Infinite",
      "IncludedMemoryFiles": [
       {
        "Id": "843453349",
        "Language": "SFX",
        "ShortName": "Harmonica_HarmonicaTremolo-03.wav",
        "Path": "SFX\\Harmonica_HarmonicaTremolo-03_BF7B47CF.wem"
       }
      ],
      "AuxBusSends": [
       {
        "Id": "3545700926",
        "Name": "Reverb1",
        "ObjectPath": "\\Master-Mixer Hierarchy\\Default Work Unit\\Master Audio Bus\\Reverb1",
        "GUID": "{980FA694-4EE4-4D1F-AC4B-F240CDE274DB}"
       }
      ]
     },
     {
      "Id": "2998057932",
      "Name": "Play_AMB_Insect_Maracas",
      "ObjectPath": "\\Events\\Default Work Unit\\Play_AMB_Insect_Maracas",
      "GUID": "{28149E6B-E6D2-4EEC-A7C8-6D0DAD405168}",
      "MaxAttenuation": "4500.",
      "DurationType": "Infinite",
      "IncludedMemoryFiles": [
       {
        "Id": "124113442",
        "Language": "SFX",
        "ShortName": "maracas_01.wav",
        "Path": "SFX\\maracas_01_58BF0B2B.wem"
       },
       {
        "Id": "268566217",
        "Language": "SFX",
        "ShortName": "maracas_01.wav",
        "Path": "SFX\\maracas_01_FFCE826C.wem"
       },
       {
        "Id": "429629968",
        "Language": "SFX",
        "ShortName": "maracas_01.wav",
        "Path": "SFX\\maracas_01_49E8216A.wem"
       },
       {
        "Id": "478315525",
        "Language": "SFX",
        "ShortName": "maracas_01.wav",
        "Path": "SFX\\maracas_01_6FA462B4.wem"
       },
       {
        "Id": "799119546",
        "Language": "SFX",
        "ShortName": "maracas_01.wav",
        "Path": "SFX\\maracas_01_8904A93C.wem"
       },
       {
        "Id": "827547135",
        "Language": "SFX",
        "ShortName": "maracas_01.wav",
        "Path": "SFX\\maracas_01_4CB34749.wem"
       },
       {
        "Id": "850944602",
        "Language": "SFX",
        "ShortName": "maracas_01.wav",
        "Path": "SFX\\maracas_01_0EC13A6D.wem"
       }
      ],
      "AuxBusSends": [
       {
        "Id": "3545700926",
        "Name": "Reverb1",
        "ObjectPath": "\\Master-Mixer Hierarchy\\Default Work Unit\\Master Audio Bus\\Reverb1",
        "GUID": "{980FA694-4EE4-4D1F-AC4B-F240CDE274DB}"
       }
      ]
     },
     {
      "Id": "2405877651",
      "Name": "Play_AMB_Insect_Maracas_2",
      "ObjectPath": "\\Events\\Default Work Unit\\Play_AMB_Insect_Maracas_2",
      "GUID": "{1279BF3E-FBBD-4238-8A63-AE816E23DD5C}",
      "MaxAttenuation": "4500.",
      "DurationType": "Infinite",
      "IncludedMemoryFiles": [
       {
        "Id": "217187740",
        "Language": "SFX",
        "ShortName": "maracas_01.wav",
        "Path": "SFX\\maracas_01_D8610733.wem"
       },
       {
        "Id": "463872644",
        "Language": "SFX",
        "ShortName": "maracas_01.wav",
        "Path": "SFX\\maracas_01_31F78286.wem"
       },
       {
        "Id": "600075873",
        "Language": "SFX",
        "ShortName": "maracas_01.wav",
        "Path": "SFX\\maracas_01_DC966801.wem"
       },
       {
        "Id": "786908233",
        "Language": "SFX",
        "ShortName": "maracas_01.wav",
        "Path": "SFX\\maracas_01_A4A4D6DB.wem"
       },
       {
        "Id": "792967354",
        "Language": "SFX",
        "ShortName": "maracas_01.wav",
        "Path": "SFX\\maracas_01_7FB4F460.wem"
       },
       {
        "Id": "952398676",
        "Language": "SFX",
        "ShortName": "maracas_01.wav",
        "Path": "SFX\\maracas_01_8C4E7568.wem"
       },
       {
        "Id": "1065213880",
        "Language": "SFX",
        "ShortName": "maracas_01.wav",
        "Path": "SFX\\maracas_01_7D3B01AF.wem"
       }
      ]
     },
     {
      "Id": "770217957",
      "Name": "Play_AMB_River",
      "ObjectPath": "\\Events\\Default Work Unit\\Play_AMB_River",
      "GUID": "{A7C0AE0E-B4E1-4EB7-ACD9-364D32DCFF6A}",
      "MaxAttenuation": "4500.",
      "DurationType": "Infinite",
      "IncludedMemoryFiles": [
       {
        "Id": "116186600",
        "Language": "SFX",
        "ShortName": "River_Flow_2.wav",
        "Path": "SFX\\River_Flow_2_3E36D9DF.wem"
       },
       {
        "Id": "171324987",
        "Language": "SFX",
        "ShortName": "River_Flow_2.wav",
        "Path": "SFX\\River_Flow_2_6D2BEEAC.wem"
       },
       {
        "Id": "226384556",
        "Language": "SFX",
        "ShortName": "River_Flow_2.wav",
        "Path": "SFX\\River_Flow_2_998B93FF.wem"
       },
       {
        "Id": "583334611",
        "Language": "SFX",
        "ShortName": "River_Flow_2.wav",
        "Path": "SFX\\River_Flow_2_0944C4B8.wem"
       }
      ]
     },
     {
      "Id": "3317835823",
      "Name": "Play_AMB_River_Lap",
      "ObjectPath": "\\Events\\Default Work Unit\\Play_AMB_River_Lap",
      "GUID": "{AA8928CD-1037-4C44-9D8C-7A0EB3072304}",
      "MaxAttenuation": "2000.",
      "DurationType": "Infinite",
      "IncludedMemoryFiles": [
       {
        "Id": "19967577",
        "Language": "SFX",
        "ShortName": "River_Lapping.wav",
        "Path": "SFX\\River_Lapping_7168247C.wem"
       },
       {
        "Id": "28253744",
        "Language": "SFX",
        "ShortName": "River_Lapping.wav",
        "Path": "SFX\\River_Lapping_908D5841.wem"
       },
       {
        "Id": "36798760",
        "Language": "SFX",
        "ShortName": "River_Lapping.wav",
        "Path": "SFX\\River_Lapping_49D5D7A1.wem"
       },
       {
        "Id": "100785430",
        "Language": "SFX",
        "ShortName": "River_Lapping.wav",
        "Path": "SFX\\River_Lapping_3A386F53.wem"
       },
       {
        "Id": "344972648",
        "Language": "SFX",
        "ShortName": "River_Lapping.wav",
        "Path": "SFX\\River_Lapping_FBC53AD7.wem"
       },
       {
        "Id": "448362851",
        "Language": "SFX",
        "ShortName": "River_Lapping.wav",
        "Path": "SFX\\River_Lapping_5D515D0F.wem"
       },
       {
        "Id": "483822872",
        "Language": "SFX",
        "ShortName": "River_Lapping.wav",
        "Path": "SFX\\River_Lapping_F7092AAC.wem"
       },
       {
        "Id": "581538905",
        "Language": "SFX",
        "ShortName": "River_Lapping.wav",
        "Path": "SFX\\River_Lapping_354EAC53.wem"
       },
       {
        "Id": "731812671",
        "Language": "SFX",
        "ShortName": "River_Lapping.wav",
        "Path": "SFX\\River_Lapping_81A2DFA7.wem"
       },
       {
        "Id": "776285871",
        "Language": "SFX",
        "ShortName": "River_Lapping.wav",
        "Path": "SFX\\River_Lapping_D78119D5.wem"
       },
       {
        "Id": "834920826",
        "Language": "SFX",
        "ShortName": "River_Lapping.wav",
        "Path": "SFX\\River_Lapping_B37C57AC.wem"
       },
       {
        "Id": "1019871505",
        "Language": "SFX",
        "ShortName": "River_Lapping.wav",
        "Path": "SFX\\River_Lapping_87D0E4C1.wem"
       }
      ]
     },
     {
      "Id": "3018600421",
      "Name": "Play_AMB_Tree_Cracks",
      "ObjectPath": "\\Events\\Default Work Unit\\Play_AMB_Tree_Cracks",
      "GUID": "{29522D3A-C5BF-4CE6-A64C-FF3980C3BF72}",
      "MaxAttenuation": "4500.",
      "DurationType": "Infinite",
      "IncludedMemoryFiles": [
       {
        "Id": "192030801",
        "Language": "SFX",
        "ShortName": "Tree_Cracks.wav",
        "Path": "SFX\\Tree_Cracks_5B423558.wem"
       },
       {
        "Id": "261368607",
        "Language": "SFX",
        "ShortName": "Tree_Cracks.wav",
        "Path": "SFX\\Tree_Cracks_35D30A84.wem"
       },
       {
        "Id": "302029980",
        "Language": "SFX",
        "ShortName": "Tree_Cracks.wav",
        "Path": "SFX\\Tree_Cracks_B644077D.wem"
       },
       {
        "Id": "487703970",
        "Language": "SFX",
        "ShortName": "Tree_Cracks.wav",
        "Path": "SFX\\Tree_Cracks_FB73E009.wem"
       },
       {
        "Id": "901397620",
        "Language": "SFX",
        "ShortName": "Tree_Cracks.wav",
        "Path": "SFX\\Tree_Cracks_6940855D.wem"
       },
       {
        "Id": "927833596",
        "Language": "SFX",
        "ShortName": "Tree_Cracks.wav",
        "Path": "SFX\\Tree_Cracks_772828D0.wem"
       },
       {
        "Id": "933607048",
        "Language": "SFX",
        "ShortName": "Tree_Cracks.wav",
        "Path": "SFX\\Tree_Cracks_6D57CA21.wem"
       },
       {
        "Id": "1009347924",
        "Language": "SFX",
        "ShortName": "Tree_Cracks.wav",
        "Path": "SFX\\Tree_Cracks_EE8FB7EF.wem"
       },
       {
        "Id": "1034548428",
        "Language": "SFX",
        "ShortName": "Tree_Cracks.wav",
        "Path": "SFX\\Tree_Cracks_F25F886A.wem"
       }
      ]
     },
     {
      "Id": "1102260322",
      "Name": "Play_AMB_Wind_Background",
      "ObjectPath": "\\Events\\Default Work Unit\\Play_AMB_Wind_Background",
      "GUID": "{3D9FF99A-A05F-4F5D-9F25-CAF09E2E193D}",
      "DurationType": "Infinite",
      "IncludedMemoryFiles": [
       {
        "Id": "182856734",
        "Language": "SFX",
        "ShortName": "Wind_Background.wav",
        "Path": "SFX\\Wind_Background_764A96D2.wem"
       },
       {
        "Id": "667651283",
        "Language": "SFX",
        "ShortName": "Wind_Background.wav",
        "Path": "SFX\\Wind_Background_EA39A8FB.wem"
       },
       {
        "Id": "842314083",
        "Language": "SFX",
        "ShortName": "Wind_Background.wav",
        "Path": "SFX\\Wind_Background_8A3E1057.wem"
       },
       {
        "Id": "1012408305",
        "Language": "SFX",
        "ShortName": "Wind_Background.wav",
        "Path": "SFX\\Wind_Background_5EAA7697.wem"
       }
      ]
     },
     {
      "Id": "4068142742",
      "Name": "Play_AMB_Wind_Herbs",
      "ObjectPath": "\\Events\\Default Work Unit\\Play_AMB_Wind_Herbs",
      "GUID": "{85A4B022-C072-4F02-9037-FC1B717BA716}",
      "MaxAttenuation": "7500.",
      "DurationType": "Infinite",
      "IncludedMemoryFiles": [
       {
        "Id": "220258976",
        "Language": "SFX",
        "ShortName": "Wind_Grass.wav",
        "Path": "SFX\\Wind_Grass_7C9CA11A.wem"
       },
       {
        "Id": "945935804",
        "Language": "SFX",
        "ShortName": "Wind_Grass.wav",
        "Path": "SFX\\Wind_Grass_E3902B4B.wem"
       }
      ]
     },
     {
      "Id": "4287380998",
      "Name": "Play_AMB_Wind_Tree",
      "ObjectPath": "\\Events\\Default Work Unit\\Play_AMB_Wind_Tree",
      "GUID": "{BAB5EA2C-2A93-4AA1-B13C-BF54CCFE1F6B}",
      "MaxAttenuation": "4500.",
      "DurationType": "Infinite",
      "IncludedMemoryFiles": [
       {
        "Id": "455601774",
        "Language": "SFX",
        "ShortName": "Wind_Grass.wav",
        "Path": "SFX\\Wind_Grass_094BD2F4.wem"
       }
      ]
     },
     {
      "Id": "1972887266",
      "Name": "Play_AMB_Wind_Tree_Spline",
      "ObjectPath": "\\Events\\Default Work Unit\\Play_AMB_Wind_Tree_Spline",
      "GUID": "{07F37D7D-10E2-4D9C-BD48-C51D7C7A298B}",
      "MaxAttenuation": "3000.",
      "DurationType": "Infinite",
      "IncludedMemoryFiles": [
       {
        "Id": "455601774",
        "Language": "SFX",
        "ShortName": "Wind_Grass.wav",
        "Path": "SFX\\Wind_Grass_094BD2F4.wem"
       }
      ]
     },
     {
      "Id": "1021172567",
      "Name": "Play_AMB_Wind_Tree_Zone",
      "ObjectPath": "\\Events\\Default Work Unit\\Play_AMB_Wind_Tree_Zone",
      "GUID": "{DED0F090-F0F9-4E10-B229-C51415258B2A}",
      "MaxAttenuation": "7500.",
      "DurationType": "Infinite",
      "IncludedMemoryFiles": [
       {
        "Id": "455601774",
        "Language": "SFX",
        "ShortName": "Wind_Grass.wav",
        "Path": "SFX\\Wind_Grass_094BD2F4.wem"
       }
      ]
     },
     {
      "Id": "1835061895",
      "Name": "Play_MUS_Big_Spot_1",
      "ObjectPath": "\\Events\\Default Work Unit\\Play_MUS_Big_Spot_1",
      "GUID": "{F121EB41-7D14-437A-B8D6-66FD26099187}",
      "DurationType": "OneShot",
      "DurationMin": "23.990582",
      "DurationMax": "23.990582",
      "IncludedMemoryFiles": [
       {
        "Id": "1016090752",
        "Language": "SFX",
        "ShortName": "music_reverb_max.wav",
        "Path": "SFX\\music_reverb_max_987D9820.wem"
       }
      ]
     },
     {
      "Id": "1835061892",
      "Name": "Play_MUS_Big_Spot_2",
      "ObjectPath": "\\Events\\Default Work Unit\\Play_MUS_Big_Spot_2",
      "GUID": "{A1C51831-BA7B-44AE-90EF-35A135894765}",
      "DurationType": "OneShot",
      "DurationMin": "23.405447",
      "DurationMax": "23.405447",
      "IncludedMemoryFiles": [
       {
        "Id": "717721816",
        "Language": "SFX",
        "ShortName": "music_reverb_max.wav",
        "Path": "SFX\\music_reverb_max_61815E61.wem"
       }
      ]
     },
     {
      "Id": "1835061893",
      "Name": "Play_MUS_Big_Spot_3",
      "ObjectPath": "\\Events\\Default Work Unit\\Play_MUS_Big_Spot_3",
      "GUID": "{6B178FA2-5B87-4603-9403-8F9999FDD6EC}",
      "DurationType": "OneShot",
      "DurationMin": "23.990582",
      "DurationMax": "23.990582",
      "IncludedMemoryFiles": [
       {
        "Id": "247662294",
        "Language": "SFX",
        "ShortName": "music_reverb_max.wav",
        "Path": "SFX\\music_reverb_max_C1B0520F.wem"
       }
      ]
     },
     {
      "Id": "1835061890",
      "Name": "Play_MUS_Big_Spot_4",
      "ObjectPath": "\\Events\\Default Work Unit\\Play_MUS_Big_Spot_4",
      "GUID": "{FD7D1F95-999E-483B-85F1-E159BE3482F2}",
      "DurationType": "OneShot",
      "DurationMin": "28.866716",
      "DurationMax": "28.866716",
      "IncludedMemoryFiles": [
       {
        "Id": "163466919",
        "Language": "SFX",
        "ShortName": "music_reverb_max.wav",
        "Path": "SFX\\music_reverb_max_E11E01C7.wem"
       }
      ]
     },
     {
      "Id": "1268228617",
      "Name": "Play_MUS_Little_Spot_1",
      "ObjectPath": "\\Events\\Default Work Unit\\Play_MUS_Little_Spot_1",
      "GUID": "{F9A02C27-452A-4BF7-BCF3-083C1E1C03D9}",
      "DurationType": "OneShot",
      "DurationMin": "12.29818",
      "DurationMax": "12.29818",
      "IncludedMemoryFiles": [
       {
        "Id": "129974204",
        "Language": "SFX",
        "ShortName": "indiv chords.wav",
        "Path": "SFX\\indiv chords_3D24EEE3.wem"
       }
      ]
     },
     {
      "Id": "1268228618",
      "Name": "Play_MUS_Little_Spot_2",
      "ObjectPath": "\\Events\\Default Work Unit\\Play_MUS_Little_Spot_2",
      "GUID": "{93B92006-BA87-4841-BB64-4FC97A8EBFF5}",
      "DurationType": "OneShot",
      "DurationMin": "13.456704",
      "DurationMax": "13.456704",
      "IncludedMemoryFiles": [
       {
        "Id": "285882720",
        "Language": "SFX",
        "ShortName": "indiv chords.wav",
        "Path": "SFX\\indiv chords_EAEBD3F2.wem"
       }
      ]
     },
     {
      "Id": "1268228619",
      "Name": "Play_MUS_Little_Spot_3",
      "ObjectPath": "\\Events\\Default Work Unit\\Play_MUS_Little_Spot_3",
      "GUID": "{A1980284-A160-4F3F-AD5C-2B0C729F8355}",
      "DurationType": "OneShot",
      "DurationMin": "12.832883",
      "DurationMax": "12.832883",
      "IncludedMemoryFiles": [
       {
        "Id": "818306502",
        "Language": "SFX",
        "ShortName": "indiv chords.wav",
        "Path": "SFX\\indiv chords_C52A179D.wem"
       }
      ]
     },
     {
      "Id": "1268228620",
      "Name": "Play_MUS_Little_Spot_4",
      "ObjectPath": "\\Events\\Default Work Unit\\Play_MUS_Little_Spot_4",
      "GUID": "{C6DC7AF5-9493-4411-A332-5DA6792E0A68}",
      "DurationType": "OneShot",
      "DurationMin": "11.585242",
      "DurationMax": "11.585242",
      "IncludedMemoryFiles": [
       {
        "Id": "701738558",
        "Language": "SFX",
        "ShortName": "indiv chords.wav",
        "Path": "SFX\\indiv chords_CC04E630.wem"
       }
      ]
     },
     {
      "Id": "1740739515",
      "Name": "Play_MUS_Random",
      "ObjectPath": "\\Events\\Default Work Unit\\Play_MUS_Random",
      "GUID": "{F9635BBB-00C5-48BB-8619-D9B67F7202BA}",
      "DurationType": "OneShot",
      "DurationMin": "11.585242",
      "DurationMax": "98.205353",
      "IncludedMemoryFiles": [
       {
        "Id": "129974204",
        "Language": "SFX",
        "ShortName": "indiv chords.wav",
        "Path": "SFX\\indiv chords_3D24EEE3.wem"
       },
       {
        "Id": "192082427",
        "Language": "SFX",
        "ShortName": "MUS_Idle.wav",
        "Path": "SFX\\MUS_Idle_FB761838.wem"
       },
       {
        "Id": "285882720",
        "Language": "SFX",
        "ShortName": "indiv chords.wav",
        "Path": "SFX\\indiv chords_EAEBD3F2.wem"
       },
       {
        "Id": "701738558",
        "Language": "SFX",
        "ShortName": "indiv chords.wav",
        "Path": "SFX\\indiv chords_CC04E630.wem"
       },
       {
        "Id": "818306502",
        "Language": "SFX",
        "ShortName": "indiv chords.wav",
        "Path": "SFX\\indiv chords_C52A179D.wem"
       },
       {
        "Id": "1002698060",
        "Language": "SFX",
        "ShortName": "music_reverb_max.wav",
        "Path": "SFX\\music_reverb_max_753560E1.wem"
       }
      ],
      "AuxBusSends": [
       {
        "Id": "3545700926",
        "Name": "Reverb1",
        "ObjectPath": "\\Master-Mixer Hierarchy\\Default Work Unit\\Master Audio Bus\\Reverb1",
        "GUID": "{980FA694-4EE4-4D1F-AC4B-F240CDE274DB}"
       }
      ]
     },
     {
      "Id": "3493803520",
      "Name": "Play_Play_SFX_Bike_GetOff",
      "ObjectPath": "\\Events\\Default Work Unit\\Play_Play_SFX_Bike_GetOff",
      "GUID": "{A2525103-C5F5-4FDA-97C8-894A055079AE}",
      "DurationType": "OneShot",
      "DurationMin": "1.",
      "DurationMax": "1."
     },
     {
      "Id": "618727370",
      "Name": "Play_Play_SFX_Bike_GetOn",
      "ObjectPath": "\\Events\\Default Work Unit\\Play_Play_SFX_Bike_GetOn",
      "GUID": "{2B4924E7-DB7D-4B50-86C7-26FD33CF5640}",
      "DurationType": "OneShot",
      "DurationMin": "1.",
      "DurationMax": "1."
     },
     {
      "Id": "3212715505",
      "Name": "Play_SFX_Bike_Brake",
      "ObjectPath": "\\Events\\Default Work Unit\\Play_SFX_Bike_Brake",
      "GUID": "{4078BBE7-DCB3-4B0A-8360-0226EEEB0DBD}",
      "DurationType": "OneShot",
      "DurationMin": "2.080629",
      "DurationMax": "2.119617",
      "IncludedMemoryFiles": [
       {
        "Id": "73316106",
        "Language": "SFX",
        "ShortName": "Bike_Brake_Rub.wav",
        "Path": "SFX\\Bike_Brake_Rub_829A94D8.wem"
       },
       {
        "Id": "277811935",
        "Language": "SFX",
        "ShortName": "Bike_Brake_Creak.wav",
        "Path": "SFX\\Bike_Brake_Creak_DBA85CED.wem"
       }
      ]
     },
     {
      "Id": "2076924886",
      "Name": "Play_SFX_Bike_Impact",
      "ObjectPath": "\\Events\\Default Work Unit\\Play_SFX_Bike_Impact",
      "GUID": "{951F4FC1-6C2C-4DDC-95D2-127E9134C226}",
      "DurationType": "OneShot",
      "DurationMin": "0.656111",
      "DurationMax": "1.383539",
      "IncludedMemoryFiles": [
       {
        "Id": "61432215",
        "Language": "SFX",
        "ShortName": "Mechanical_cric_2.wav",
        "Path": "SFX\\Mechanical_cric_2_E8AA7094.wem"
       },
       {
        "Id": "106948091",
        "Language": "SFX",
        "ShortName": "Mechanical_Cric.wav",
        "Path": "SFX\\Mechanical_Cric_3301C81A.wem"
       },
       {
        "Id": "128409327",
        "Language": "SFX",
        "ShortName": "Mechanical_cric_2.wav",
        "Path": "SFX\\Mechanical_cric_2_B3A3C52B.wem"
       },
       {
        "Id": "168300314",
        "Language": "SFX",
        "ShortName": "Impact2.wav",
        "Path": "SFX\\Impact2_2CC5B42B.wem"
       },
       {
        "Id": "173114545",
        "Language": "SFX",
        "ShortName": "Mechanical_cric_2.wav",
        "Path": "SFX\\Mechanical_cric_2_4CBCEC3F.wem"
       },
       {
        "Id": "175652556",
        "Language": "SFX",
        "ShortName": "Suspensions.wav",
        "Path": "SFX\\Suspensions_29F19E42.wem"
       },
       {
        "Id": "337123883",
        "Language": "SFX",
        "ShortName": "Mechanical_Cric.wav",
        "Path": "SFX\\Mechanical_Cric_790D6EC5.wem"
       },
       {
        "Id": "347037068",
        "Language": "SFX",
        "ShortName": "Mechanical_Cric.wav",
        "Path": "SFX\\Mechanical_Cric_06F76AC6.wem"
       },
       {
        "Id": "450174678",
        "Language": "SFX",
        "ShortName": "kalimba_02.wav",
        "Path": "SFX\\kalimba_02_4366A8FE.wem"
       },
       {
        "Id": "512593266",
        "Language": "SFX",
        "ShortName": "Mechanical_cric_2.wav",
        "Path": "SFX\\Mechanical_cric_2_D9B14F38.wem"
       },
       {
        "Id": "536378527",
        "Language": "SFX",
        "ShortName": "Impact1.wav",
        "Path": "SFX\\Impact1_E5162673.wem"
       },
       {
        "Id": "575298368",
        "Language": "SFX",
        "ShortName": "kalimba_02.wav",
        "Path": "SFX\\kalimba_02_86E3094A.wem"
       },
       {
        "Id": "648519113",
        "Language": "SFX",
        "ShortName": "Mechanical_Cric.wav",
        "Path": "SFX\\Mechanical_Cric_A878510C.wem"
       },
       {
        "Id": "677156742",
        "Language": "SFX",
        "ShortName": "Mechanical_Cric.wav",
        "Path": "SFX\\Mechanical_Cric_0BAE1140.wem"
       },
       {
        "Id": "767368322",
        "Language": "SFX",
        "ShortName": "Mechanical_Cric.wav",
        "Path": "SFX\\Mechanical_Cric_01A3158C.wem"
       },
       {
        "Id": "805382329",
        "Language": "SFX",
        "ShortName": "Impact2.wav",
        "Path": "SFX\\Impact2_DCD113B2.wem"
       },
       {
        "Id": "816125389",
        "Language": "SFX",
        "ShortName": "Mechanical_cric_2.wav",
        "Path": "SFX\\Mechanical_cric_2_363CE876.wem"
       },
       {
        "Id": "855958242",
        "Language": "SFX",
        "ShortName": "Impact2.wav",
        "Path": "SFX\\Impact2_5219B152.wem"
       },
       {
        "Id": "922280689",
        "Language": "SFX",
        "ShortName": "kalimba_02.wav",
        "Path": "SFX\\kalimba_02_840013CB.wem"
       },
       {
        "Id": "924024569",
        "Language": "SFX",
        "ShortName": "Mechanical_Cric.wav",
        "Path": "SFX\\Mechanical_Cric_FCA37DD7.wem"
       },
       {
        "Id": "969638171",
        "Language": "SFX",
        "ShortName": "kalimba_02.wav",
        "Path": "SFX\\kalimba_02_330B59FE.wem"
       },
       {
        "Id": "1000719465",
        "Language": "SFX",
        "ShortName": "Impact2.wav",
        "Path": "SFX\\Impact2_173CDE1C.wem"
       },
       {
        "Id": "1020352115",
        "Language": "SFX",
        "ShortName": "Impact2.wav",
        "Path": "SFX\\Impact2_A3C1F971.wem"
       },
       {
        "Id": "1043483466",
        "Language": "SFX",
        "ShortName": "Mechanical_Cric.wav",
        "Path": "SFX\\Mechanical_Cric_22C5CD2F.wem"
       },
       {
        "Id": "1058367490",
        "Language": "SFX",
        "ShortName": "kalimba_02.wav",
        "Path": "SFX\\kalimba_02_A4BA8650.wem"
       }
      ]
     },
     {
      "Id": "3955950012",
      "Name": "Play_SFX_Bike_Pedaling",
      "ObjectPath": "\\Events\\Default Work Unit\\Play_SFX_Bike_Pedaling",
      "GUID": "{1B5D0E18-2820-41FB-AEA7-09569213807B}",
      "DurationType": "Infinite",
      "IncludedMemoryFiles": [
       {
        "Id": "56152536",
        "Language": "SFX",
        "ShortName": "435295__sunnyflower__cloth-rustle-4.wav",
        "Path": "SFX\\435295__sunnyflower__cloth-rustle-4_21E606F7.wem"
       },
       {
        "Id": "93311257",
        "Language": "SFX",
        "ShortName": "bike.wav",
        "Path": "SFX\\bike_CD7F2617.wem"
       },
       {
        "Id": "168400654",
        "Language": "SFX",
        "ShortName": "435295__sunnyflower__cloth-rustle-4.wav",
        "Path": "SFX\\435295__sunnyflower__cloth-rustle-4_DA8E694C.wem"
       },
       {
        "Id": "169913627",
        "Language": "SFX",
        "ShortName": "435295__sunnyflower__cloth-rustle-4.wav",
        "Path": "SFX\\435295__sunnyflower__cloth-rustle-4_A645A22A.wem"
       },
       {
        "Id": "372981864",
        "Language": "SFX",
        "ShortName": "435295__sunnyflower__cloth-rustle-4.wav",
        "Path": "SFX\\435295__sunnyflower__cloth-rustle-4_F0CDB104.wem"
       },
       {
        "Id": "495372266",
        "Language": "SFX",
        "ShortName": "435295__sunnyflower__cloth-rustle-4.wav",
        "Path": "SFX\\435295__sunnyflower__cloth-rustle-4_273C3D6A.wem"
       },
       {
        "Id": "568274459",
        "Language": "SFX",
        "ShortName": "bike.wav",
        "Path": "SFX\\bike_751B2684.wem"
       },
       {
        "Id": "690117752",
        "Language": "SFX",
        "ShortName": "435295__sunnyflower__cloth-rustle-4.wav",
        "Path": "SFX\\435295__sunnyflower__cloth-rustle-4_E1FB805F.wem"
       },
       {
        "Id": "885856805",
        "Language": "SFX",
        "ShortName": "435295__sunnyflower__cloth-rustle-4.wav",
        "Path": "SFX\\435295__sunnyflower__cloth-rustle-4_AD8BBD8F.wem"
       },
       {
        "Id": "986651072",
        "Language": "SFX",
        "ShortName": "435295__sunnyflower__cloth-rustle-4.wav",
        "Path": "SFX\\435295__sunnyflower__cloth-rustle-4_11E80B70.wem"
       },
       {
        "Id": "1010416961",
        "Language": "SFX",
        "ShortName": "435295__sunnyflower__cloth-rustle-4.wav",
        "Path": "SFX\\435295__sunnyflower__cloth-rustle-4_EFB9599E.wem"
       }
      ]
     },
     {
      "Id": "3248669163",
      "Name": "Play_SFX_Bike_System",
      "ObjectPath": "\\Events\\Default Work Unit\\Play_SFX_Bike_System",
      "GUID": "{B941E0A1-419E-41CF-84E9-826B2944771E}",
      "DurationType": "Infinite",
      "IncludedMemoryFiles": [
       {
        "Id": "68992840",
        "Language": "SFX",
        "ShortName": "25-14 Grandfather Clock  Chime.wav",
        "Path": "SFX\\25-14 Grandfather Clock  Chime_E2DEAFAD.wem"
       },
       {
        "Id": "106651565",
        "Language": "SFX",
        "ShortName": "cles_01.wav",
        "Path": "SFX\\cles_01_414B50D5.wem"
       },
       {
        "Id": "158089699",
        "Language": "SFX",
        "ShortName": "cles_01.wav",
        "Path": "SFX\\cles_01_EEBA2B47.wem"
       },
       {
        "Id": "165417809",
        "Language": "SFX",
        "ShortName": "Wind_Bike.wav",
        "Path": "SFX\\Wind_Bike_1C643AC2.wem"
       },
       {
        "Id": "170087823",
        "Language": "SFX",
        "ShortName": "cles_01.wav",
        "Path": "SFX\\cles_01_7673D866.wem"
       },
       {
        "Id": "190438347",
        "Language": "SFX",
        "ShortName": "25-14 Grandfather Clock  Chime.wav",
        "Path": "SFX\\25-14 Grandfather Clock  Chime_A0B18A7B.wem"
       },
       {
        "Id": "248673656",
        "Language": "SFX",
        "ShortName": "cles_01.wav",
        "Path": "SFX\\cles_01_A86B8C96.wem"
       },
       {
        "Id": "322360688",
        "Language": "SFX",
        "ShortName": "cles_01.wav",
        "Path": "SFX\\cles_01_9C9DD974.wem"
       },
       {
        "Id": "392567627",
        "Language": "SFX",
        "ShortName": "25-14 Grandfather Clock  Chime.wav",
        "Path": "SFX\\25-14 Grandfather Clock  Chime_9C144079.wem"
       },
       {
        "Id": "415729038",
        "Language": "SFX",
        "ShortName": "cles_01.wav",
        "Path": "SFX\\cles_01_8A34DE6B.wem"
       },
       {
        "Id": "450174678",
        "Language": "SFX",
        "ShortName": "kalimba_02.wav",
        "Path": "SFX\\kalimba_02_4366A8FE.wem"
       },
       {
        "Id": "472603311",
        "Language": "SFX",
        "ShortName": "cles_01.wav",
        "Path": "SFX\\cles_01_CA45AE05.wem"
       },
       {
        "Id": "477475685",
        "Language": "SFX",
        "ShortName": "cles_01.wav",
        "Path": "SFX\\cles_01_B9F43F5D.wem"
       },
       {
        "Id": "491880580",
        "Language": "SFX",
        "ShortName": "cles_01.wav",
        "Path": "SFX\\cles_01_57CB2DCC.wem"
       },
       {
        "Id": "501791983",
        "Language": "SFX",
        "ShortName": "Wind_Bike.wav",
        "Path": "SFX\\Wind_Bike_800C3B0B.wem"
       },
       {
        "Id": "506565424",
        "Language": "SFX",
        "ShortName": "25-14 Grandfather Clock  Chime.wav",
        "Path": "SFX\\25-14 Grandfather Clock  Chime_975B1181.wem"
       },
       {
        "Id": "528888855",
        "Language": "SFX",
        "ShortName": "cles_01.wav",
        "Path": "SFX\\cles_01_11DA054E.wem"
       },
       {
        "Id": "546845378",
        "Language": "SFX",
        "ShortName": "25-14 Grandfather Clock  Chime.wav",
        "Path": "SFX\\25-14 Grandfather Clock  Chime_67583149.wem"
       },
       {
        "Id": "558111203",
        "Language": "SFX",
        "ShortName": "cles_01.wav",
        "Path": "SFX\\cles_01_21E0D8CE.wem"
       },
       {
        "Id": "573465740",
        "Language": "SFX",
        "ShortName": "cles_01.wav",
        "Path": "SFX\\cles_01_556207D7.wem"
       },
       {
        "Id": "575298368",
        "Language": "SFX",
        "ShortName": "kalimba_02.wav",
        "Path": "SFX\\kalimba_02_86E3094A.wem"
       },
       {
        "Id": "624308497",
        "Language": "SFX",
        "ShortName": "Wind_Bike.wav",
        "Path": "SFX\\Wind_Bike_3EE686D2.wem"
       },
       {
        "Id": "752230101",
        "Language": "SFX",
        "ShortName": "cles_01.wav",
        "Path": "SFX\\cles_01_3DA14004.wem"
       },
       {
        "Id": "818699301",
        "Language": "SFX",
        "ShortName": "Wind_Bike.wav",
        "Path": "SFX\\Wind_Bike_393388CC.wem"
       },
       {
        "Id": "846377305",
        "Language": "SFX",
        "ShortName": "Suspensions.wav",
        "Path": "SFX\\Suspensions_1E9B8505.wem"
       },
       {
        "Id": "917452835",
        "Language": "SFX",
        "ShortName": "Wind_Bike.wav",
        "Path": "SFX\\Wind_Bike_8F67CC39.wem"
       },
       {
        "Id": "922280689",
        "Language": "SFX",
        "ShortName": "kalimba_02.wav",
        "Path": "SFX\\kalimba_02_840013CB.wem"
       },
       {
        "Id": "940133260",
        "Language": "SFX",
        "ShortName": "cles_01.wav",
        "Path": "SFX\\cles_01_E9EE306E.wem"
       },
       {
        "Id": "969638171",
        "Language": "SFX",
        "ShortName": "kalimba_02.wav",
        "Path": "SFX\\kalimba_02_330B59FE.wem"
       },
       {
        "Id": "989370022",
        "Language": "SFX",
        "ShortName": "25-14 Grandfather Clock  Chime.wav",
        "Path": "SFX\\25-14 Grandfather Clock  Chime_2D29E80D.wem"
       },
       {
        "Id": "1013138990",
        "Language": "SFX",
        "ShortName": "Wind_Bike.wav",
        "Path": "SFX\\Wind_Bike_C814E11D.wem"
       },
       {
        "Id": "1038835937",
        "Language": "SFX",
        "ShortName": "bike_clic_sound2.wav",
        "Path": "SFX\\bike_clic_sound2_7CC35A7A.wem"
       },
       {
        "Id": "1058367490",
        "Language": "SFX",
        "ShortName": "kalimba_02.wav",
        "Path": "SFX\\kalimba_02_A4BA8650.wem"
       }
      ]
     },
     {
      "Id": "3526221634",
      "Name": "Play_SFX_Item_Pickup",
      "ObjectPath": "\\Events\\Default Work Unit\\Play_SFX_Item_Pickup",
      "GUID": "{6879DA64-9F06-44E8-99C1-584BC2A10CC1}",
      "DurationType": "OneShot",
      "DurationMin": "0.852693",
      "DurationMax": "1.366512",
      "IncludedMemoryFiles": [
       {
        "Id": "42065700",
        "Language": "SFX",
        "ShortName": "cloth fall.wav",
        "Path": "SFX\\cloth fall_E2BCE070.wem"
       },
       {
        "Id": "876294256",
        "Language": "SFX",
        "ShortName": "435295__sunnyflower__cloth-rustle-4.wav",
        "Path": "SFX\\435295__sunnyflower__cloth-rustle-4_D040A468.wem"
       },
       {
        "Id": "894028712",
        "Language": "SFX",
        "ShortName": "cloth fall.wav",
        "Path": "SFX\\cloth fall_5B47CFE4.wem"
       },
       {
        "Id": "945675212",
        "Language": "SFX",
        "ShortName": "435295__sunnyflower__cloth-rustle-4.wav",
        "Path": "SFX\\435295__sunnyflower__cloth-rustle-4_F3B1A950.wem"
       }
      ]
     },
     {
      "Id": "3928467003",
      "Name": "Play_SFX_Surface",
      "ObjectPath": "\\Events\\Default Work Unit\\Play_SFX_Surface",
      "GUID": "{5737EB4C-13AD-483A-AED4-814E9E9F269F}",
      "DurationType": "Infinite",
      "IncludedMemoryFiles": [
       {
        "Id": "116186600",
        "Language": "SFX",
        "ShortName": "River_Flow_2.wav",
        "Path": "SFX\\River_Flow_2_3E36D9DF.wem"
       },
       {
        "Id": "132529257",
        "Language": "SFX",
        "ShortName": "79 Footsteps  Hollow Wood Floor- Slo.wav",
        "Path": "SFX\\79 Footsteps  Hollow Wood Floor- Slo_1EE7FA34.wem"
       },
       {
        "Id": "154986495",
        "Language": "SFX",
        "ShortName": "79 Footsteps  Hollow Wood Floor- Slo.wav",
        "Path": "SFX\\79 Footsteps  Hollow Wood Floor- Slo_24CA436E.wem"
       },
       {
        "Id": "171324987",
        "Language": "SFX",
        "ShortName": "River_Flow_2.wav",
        "Path": "SFX\\River_Flow_2_6D2BEEAC.wem"
       },
       {
        "Id": "183546072",
        "Language": "SFX",
        "ShortName": "79 Footsteps  Hollow Wood Floor- Slo.wav",
        "Path": "SFX\\79 Footsteps  Hollow Wood Floor- Slo_F512BAE8.wem"
       },
       {
        "Id": "226384556",
        "Language": "SFX",
        "ShortName": "River_Flow_2.wav",
        "Path": "SFX\\River_Flow_2_998B93FF.wem"
       },
       {
        "Id": "455140748",
        "Language": "SFX",
        "ShortName": "DBDS Rocks Small 02.wav",
        "Path": "SFX\\DBDS Rocks Small 02_46963F24.wem"
       },
       {
        "Id": "526605931",
        "Language": "SFX",
        "ShortName": "Wind_Grass.wav",
        "Path": "SFX\\Wind_Grass_687184CF.wem"
       },
       {
        "Id": "529480346",
        "Language": "SFX",
        "ShortName": "DBDS Rocks Small 02.wav",
        "Path": "SFX\\DBDS Rocks Small 02_F080AED1.wem"
       },
       {
        "Id": "583334611",
        "Language": "SFX",
        "ShortName": "River_Flow_2.wav",
        "Path": "SFX\\River_Flow_2_0944C4B8.wem"
       },
       {
        "Id": "626756782",
        "Language": "SFX",
        "ShortName": "Wind_Grass.wav",
        "Path": "SFX\\Wind_Grass_98BD2B61.wem"
       },
       {
        "Id": "699725214",
        "Language": "SFX",
        "ShortName": "DBDS Rocks Small 02.wav",
        "Path": "SFX\\DBDS Rocks Small 02_D14AB993.wem"
       },
       {
        "Id": "708508623",
        "Language": "SFX",
        "ShortName": "Wind_Grass.wav",
        "Path": "SFX\\Wind_Grass_1F4BB7D2.wem"
       },
       {
        "Id": "791787892",
        "Language": "SFX",
        "ShortName": "79 Footsteps  Hollow Wood Floor- Slo.wav",
        "Path": "SFX\\79 Footsteps  Hollow Wood Floor- Slo_DDF140DC.wem"
       },
       {
        "Id": "853619740",
        "Language": "SFX",
        "ShortName": "DBDS Rocks Small 02.wav",
        "Path": "SFX\\DBDS Rocks Small 02_F1CF22D3.wem"
       },
       {
        "Id": "874753699",
        "Language": "SFX",
        "ShortName": "DBDS Rocks Small 02.wav",
        "Path": "SFX\\DBDS Rocks Small 02_432D60F2.wem"
       },
       {
        "Id": "1034993484",
        "Language": "SFX",
        "ShortName": "Wind_Grass.wav",
        "Path": "SFX\\Wind_Grass_67EB99CE.wem"
       }
      ],
      "DefaultSwitchValue": "{20029B55-24A2-4667-8B41-6BCAC34E56BB}",
      "SwitchContainers": [
       {
        "SwitchValue": "{B6CEAA1C-EB80-4D73-A1CA-3A366A8AE32F}",
        "Media": [
         {
          "Id": "132529257"
         },
         {
          "Id": "154986495"
         },
         {
          "Id": "183546072"
         },
         {
          "Id": "791787892"
         }
        ]
       },
       {
        "SwitchValue": "{6852FA3F-261D-4B83-B534-7AAA728C16F1}",
        "Media": [
         {
          "Id": "526605931"
         },
         {
          "Id": "626756782"
         },
         {
          "Id": "708508623"
         },
         {
          "Id": "1034993484"
         }
        ]
       },
       {
        "SwitchValue": "{20029B55-24A2-4667-8B41-6BCAC34E56BB}",
        "Media": [
         {
          "Id": "526605931"
         },
         {
          "Id": "626756782"
         },
         {
          "Id": "708508623"
         },
         {
          "Id": "1034993484"
         }
        ]
       },
       {
        "SwitchValue": "{83FCBFCD-F0E7-4E64-B348-5AF67021AA8F}",
        "Media": [
         {
          "Id": "455140748"
         },
         {
          "Id": "529480346"
         },
         {
          "Id": "699725214"
         },
         {
          "Id": "853619740"
         },
         {
          "Id": "874753699"
         }
        ]
       },
       {
        "SwitchValue": "{643428F2-29A9-4FC9-B969-CEDE8C99BE7A}",
        "Media": [
         {
          "Id": "116186600"
         },
         {
          "Id": "171324987"
         },
         {
          "Id": "226384556"
         },
         {
          "Id": "583334611"
         }
        ]
       }
      ]
     },
     {
      "Id": "1339559671",
      "Name": "Play_UI_Hover",
      "ObjectPath": "\\Events\\Default Work Unit\\Play_UI_Hover",
      "GUID": "{37E2B533-E37D-4903-ACEE-653A403D5F65}",
      "DurationType": "OneShot",
      "DurationMin": "0.05356",
      "DurationMax": "0.05356",
      "IncludedMemoryFiles": [
       {
        "Id": "529138211",
        "Language": "SFX",
        "ShortName": "3_Idle_bouton_menu.wav",
        "Path": "SFX\\3_Idle_bouton_menu_3F75BDB9.wem"
       }
      ]
     },
     {
      "Id": "1719456260",
      "Name": "Play_UI_Inventory_Close",
      "ObjectPath": "\\Events\\Default Work Unit\\Play_UI_Inventory_Close",
      "GUID": "{1C0FC4A5-92D5-40D5-BB41-AE713AE366DC}",
      "DurationType": "OneShot",
      "DurationMin": "0.381164",
      "DurationMax": "0.453282",
      "IncludedMemoryFiles": [
       {
        "Id": "276724028",
        "Language": "SFX",
        "ShortName": "Hard Cover Book Close Cover 03.wav",
        "Path": "SFX\\Hard Cover Book Close Cover 03_77921E1A.wem"
       }
      ]
     },
     {
      "Id": "3582769408",
      "Name": "Play_UI_Inventory_Open",
      "ObjectPath": "\\Events\\Default Work Unit\\Play_UI_Inventory_Open",
      "GUID": "{1448B8AD-FB1A-4C46-BD35-88BB5E979C73}",
      "DurationType": "OneShot",
      "DurationMin": "0.462579",
      "DurationMax": "0.462579",
      "IncludedMemoryFiles": [
       {
        "Id": "747705590",
        "Language": "SFX",
        "ShortName": "PM_BA_BOOK_0_29 Book, Open, Paper.wav",
        "Path": "SFX\\PM_BA_BOOK_0_29 Book, Open, Paper_5486ACB1.wem"
       }
      ]
     },
     {
      "Id": "1818592873",
      "Name": "Play_UI_Inventory_Page_Turn",
      "ObjectPath": "\\Events\\Default Work Unit\\Play_UI_Inventory_Page_Turn",
      "GUID": "{866032B2-2C50-4E5E-BB32-844442E69787}",
      "DurationType": "OneShot",
      "DurationMin": "0.647777",
      "DurationMax": "0.787102",
      "IncludedMemoryFiles": [
       {
        "Id": "31328005",
        "Language": "SFX",
        "ShortName": "Turn Page of Paper Back Book 03.wav",
        "Path": "SFX\\Turn Page of Paper Back Book 03_3F75BDB9.wem"
       },
       {
        "Id": "180459407",
        "Language": "SFX",
        "ShortName": "Turn Page of Hard Cover Book 02.wav",
        "Path": "SFX\\Turn Page of Hard Cover Book 02_A87E8539.wem"
       },
       {
        "Id": "926875644",
        "Language": "SFX",
        "ShortName": "Turn Page of Paper Back Book 01.wav",
        "Path": "SFX\\Turn Page of Paper Back Book 01_F33B989E.wem"
       }
      ]
     },
     {
      "Id": "3308548503",
      "Name": "Play_UI_Select",
      "ObjectPath": "\\Events\\Default Work Unit\\Play_UI_Select",
      "GUID": "{2820DC6C-0227-4F4A-9170-DE8ACF6972A1}",
      "DurationType": "OneShot",
      "DurationMin": "0.11161",
      "DurationMax": "0.11161",
      "IncludedMemoryFiles": [
       {
        "Id": "947901315",
        "Language": "SFX",
        "ShortName": "4_Sélection_Bouton.wav",
        "Path": "SFX\\4_Sélection_Bouton_3F75BDB9.wem"
       }
      ]
     },
     {
      "Id": "1032705136",
      "Name": "Play_VX_Jay_Mepris",
      "ObjectPath": "\\Events\\Default Work Unit\\Play_VX_Jay_Mepris",
      "GUID": "{B2B4C294-42CA-4930-BAAB-D72399BE25E4}",
      "DurationType": "OneShot",
      "DurationMin": "0.550486",
      "DurationMax": "0.642747",
      "IncludedMemoryFiles": [
       {
        "Id": "580838405",
        "Language": "SFX",
        "ShortName": "VX_Jay_Mepris.wav",
        "Path": "SFX\\VX_Jay_Mepris_43A265D5.wem"
       },
       {
        "Id": "996546336",
        "Language": "SFX",
        "ShortName": "VX_Jay_Mepris.wav",
        "Path": "SFX\\VX_Jay_Mepris_C4F8C1A3.wem"
       },
       {
        "Id": "1070927417",
        "Language": "SFX",
        "ShortName": "VX_Jay_Mepris.wav",
        "Path": "SFX\\VX_Jay_Mepris_514F4129.wem"
       }
      ]
     },
     {
      "Id": "1443801756",
      "Name": "Play_VX_Jay_Question",
      "ObjectPath": "\\Events\\Default Work Unit\\Play_VX_Jay_Question",
      "GUID": "{99F0573B-D417-48EF-A812-A15FE6F47A7F}",
      "DurationType": "OneShot",
      "DurationMin": "0.572675",
      "DurationMax": "0.824863",
      "IncludedMemoryFiles": [
       {
        "Id": "155495910",
        "Language": "SFX",
        "ShortName": "VX_Jay_Question.wav",
        "Path": "SFX\\VX_Jay_Question_BE1F8DA2.wem"
       },
       {
        "Id": "753771445",
        "Language": "SFX",
        "ShortName": "VX_Jay_Question.wav",
        "Path": "SFX\\VX_Jay_Question_5C4F6CCF.wem"
       },
       {
        "Id": "863321931",
        "Language": "SFX",
        "ShortName": "VX_Jay_Question.wav",
        "Path": "SFX\\VX_Jay_Question_45EF44BB.wem"
       },
       {
        "Id": "992892701",
        "Language": "SFX",
        "ShortName": "VX_Jay_Question.wav",
        "Path": "SFX\\VX_Jay_Question_50F29BF4.wem"
       }
      ]
     },
     {
      "Id": "3696919799",
      "Name": "Play_VX_Jay_Salut",
      "ObjectPath": "\\Events\\Default Work Unit\\Play_VX_Jay_Salut",
      "GUID": "{E4CA5B66-4D2F-442D-A464-E0FEFFC661ED}",
      "DurationType": "OneShot",
      "DurationMin": "0.488489",
      "DurationMax": "0.585617",
      "IncludedMemoryFiles": [
       {
        "Id": "108980774",
        "Language": "SFX",
        "ShortName": "VX_Jay_Salut.wav",
        "Path": "SFX\\VX_Jay_Salut_7A503F8C.wem"
       },
       {
        "Id": "534491761",
        "Language": "SFX",
        "ShortName": "VX_Jay_Salut.wav",
        "Path": "SFX\\VX_Jay_Salut_885C3343.wem"
       },
       {
        "Id": "863816456",
        "Language": "SFX",
        "ShortName": "VX_Jay_Salut.wav",
        "Path": "SFX\\VX_Jay_Salut_09C413D8.wem"
       }
      ]
     },
     {
      "Id": "3618389144",
      "Name": "Play_VX_Jay_Soupir",
      "ObjectPath": "\\Events\\Default Work Unit\\Play_VX_Jay_Soupir",
      "GUID": "{260EA5A3-7165-4014-BAB8-DC9C6AA10574}",
      "DurationType": "OneShot",
      "DurationMin": "1.536633",
      "DurationMax": "1.638717",
      "IncludedMemoryFiles": [
       {
        "Id": "137157726",
        "Language": "SFX",
        "ShortName": "VX_Jay_Soupir.wav",
        "Path": "SFX\\VX_Jay_Soupir_51B4EDA7.wem"
       },
       {
        "Id": "325095539",
        "Language": "SFX",
        "ShortName": "VX_Jay_Soupir.wav",
        "Path": "SFX\\VX_Jay_Soupir_DABB8B56.wem"
       },
       {
        "Id": "547148824",
        "Language": "SFX",
        "ShortName": "VX_Jay_Soupir.wav",
        "Path": "SFX\\VX_Jay_Soupir_4E18D6BC.wem"
       }
      ]
     },
     {
      "Id": "3843404916",
      "Name": "Play_VX_Jay_Surpris",
      "ObjectPath": "\\Events\\Default Work Unit\\Play_VX_Jay_Surpris",
      "GUID": "{6CEDE1A4-D9A7-4E89-823B-05F00AAB574B}",
      "DurationType": "OneShot",
      "DurationMin": "0.493642",
      "DurationMax": "0.722971",
      "IncludedMemoryFiles": [
       {
        "Id": "40268299",
        "Language": "SFX",
        "ShortName": "VX_Jay_Surpris.wav",
        "Path": "SFX\\VX_Jay_Surpris_16FF3374.wem"
       },
       {
        "Id": "423551776",
        "Language": "SFX",
        "ShortName": "VX_Jay_Surpris.wav",
        "Path": "SFX\\VX_Jay_Surpris_73B12A85.wem"
       },
       {
        "Id": "673883923",
        "Language": "SFX",
        "ShortName": "VX_Jay_Surpris.wav",
        "Path": "SFX\\VX_Jay_Surpris_5CFC3102.wem"
       },
       {
        "Id": "925162526",
        "Language": "SFX",
        "ShortName": "VX_Jay_Surpris.wav",
        "Path": "SFX\\VX_Jay_Surpris_D1CA24B0.wem"
       },
       {
        "Id": "1018752695",
        "Language": "SFX",
        "ShortName": "VX_Jay_Surpris.wav",
        "Path": "SFX\\VX_Jay_Surpris_DD1BD136.wem"
       }
      ]
     },
     {
      "Id": "4189959480",
      "Name": "Play_VX_Kevin_Salut",
      "ObjectPath": "\\Events\\Default Work Unit\\Play_VX_Kevin_Salut",
      "GUID": "{015DFDEA-3C12-4C68-AC1B-92C5B63F3A5A}",
      "DurationType": "OneShot",
      "DurationMin": "0.693846",
      "DurationMax": "0.835448",
      "IncludedMemoryFiles": [
       {
        "Id": "577340537",
        "Language": "SFX",
        "ShortName": "VX_Kevin_Salut.wav",
        "Path": "SFX\\VX_Kevin_Salut_3DE4EE2F.wem"
       },
       {
        "Id": "947337934",
        "Language": "SFX",
        "ShortName": "VX_Kevin_Salut.wav",
        "Path": "SFX\\VX_Kevin_Salut_9CC5123E.wem"
       },
       {
        "Id": "986390602",
        "Language": "SFX",
        "ShortName": "VX_Kevin_Salut.wav",
        "Path": "SFX\\VX_Kevin_Salut_EC33524B.wem"
       },
       {
        "Id": "1010691332",
        "Language": "SFX",
        "ShortName": "VX_Kevin_Salut.wav",
        "Path": "SFX\\VX_Kevin_Salut_107AD97F.wem"
       }
      ]
     },
     {
      "Id": "4077723469",
      "Name": "Play_VX_Kevin_Soupir",
      "ObjectPath": "\\Events\\Default Work Unit\\Play_VX_Kevin_Soupir",
      "GUID": "{29F6A433-CBFB-4307-92BA-09424EE157D8}",
      "DurationType": "OneShot",
      "DurationMin": "0.926028",
      "DurationMax": "1.250829",
      "IncludedMemoryFiles": [
       {
        "Id": "576247",
        "Language": "SFX",
        "ShortName": "VX_Kevin_Soupir.wav",
        "Path": "SFX\\VX_Kevin_Soupir_7246A1F1.wem"
       },
       {
        "Id": "603672131",
        "Language": "SFX",
        "ShortName": "VX_Kevin_Soupir.wav",
        "Path": "SFX\\VX_Kevin_Soupir_79BCE50D.wem"
       },
       {
        "Id": "670238855",
        "Language": "SFX",
        "ShortName": "VX_Kevin_Soupir.wav",
        "Path": "SFX\\VX_Kevin_Soupir_04EBCA07.wem"
       }
      ]
     },
     {
      "Id": "3964723107",
      "Name": "Play_VX_Kevin_Surpris",
      "ObjectPath": "\\Events\\Default Work Unit\\Play_VX_Kevin_Surpris",
      "GUID": "{400C6CFA-6C8B-4C1F-B564-BEDDEB0BB00E}",
      "DurationType": "OneShot",
      "DurationMin": "1.045183",
      "DurationMax": "1.306479",
      "IncludedMemoryFiles": [
       {
        "Id": "93456528",
        "Language": "SFX",
        "ShortName": "VX_Kevin_Surpris.wav",
        "Path": "SFX\\VX_Kevin_Surpris_1F83CC0C.wem"
       },
       {
        "Id": "272126174",
        "Language": "SFX",
        "ShortName": "VX_Kevin_Surpris.wav",
        "Path": "SFX\\VX_Kevin_Surpris_E073DE9A.wem"
       },
       {
        "Id": "558103290",
        "Language": "SFX",
        "ShortName": "VX_Kevin_Surpris.wav",
        "Path": "SFX\\VX_Kevin_Surpris_DCFDA1AA.wem"
       },
       {
        "Id": "715011586",
        "Language": "SFX",
        "ShortName": "VX_Kevin_Surpris.wav",
        "Path": "SFX\\VX_Kevin_Surpris_DF7B449B.wem"
       },
       {
        "Id": "1038233642",
        "Language": "SFX",
        "ShortName": "VX_Kevin_Surpris.wav",
        "Path": "SFX\\VX_Kevin_Surpris_BFC55563.wem"
       }
      ]
     },
     {
      "Id": "59408235",
      "Name": "Stop_SFX_Bike_Brake",
      "ObjectPath": "\\Events\\Default Work Unit\\Stop_SFX_Bike_Brake",
      "GUID": "{2C4F8246-3A4C-4FB8-9EFB-7A4D2AD0987F}",
      "MaxAttenuation": "0.",
      "DurationType": "OneShot",
      "DurationMin": "0.",
      "DurationMax": "0."
     },
     {
      "Id": "3525884518",
      "Name": "Stop_SFX_Bike_Pedaling",
      "ObjectPath": "\\Events\\Default Work Unit\\Stop_SFX_Bike_Pedaling",
      "GUID": "{54B7B377-3333-4B1F-AD7C-CDE544119F92}",
      "MaxAttenuation": "0.",
      "DurationType": "OneShot",
      "DurationMin": "0.",
      "DurationMax": "0."
     }
    ],
    "GameParameters": [
     {
      "Id": "486237934",
      "Name": "RTPC_Bike_Fall_Height",
      "ObjectPath": "\\Game Parameters\\Default Work Unit\\RTPC_Bike_Fall_Height",
      "GUID": "{C5EFDE4F-997F-4231-ACF8-E19DFBD717F7}"
     },
     {
      "Id": "1460990512",
      "Name": "RTPC_Bike_Speed",
      "ObjectPath": "\\Game Parameters\\Default Work Unit\\RTPC_Bike_Speed",
      "GUID": "{6614E8CE-8264-4EEC-B7C1-AB4E6B8C4B72}"
     }
    ],
    "SwitchGroups": [
     {
      "Id": "1834394558",
      "Name": "Surface",
      "ObjectPath": "\\Switches\\Default Work Unit\\Surface",
      "GUID": "{BD66399A-2839-40D6-BBD5-A88711FDAE49}",
      "Switches": [
       {
        "Id": "3753743010",
        "Name": "Caillou",
        "ObjectPath": "\\Switches\\Default Work Unit\\Surface\\Caillou",
        "GUID": "{83FCBFCD-F0E7-4E64-B348-5AF67021AA8F}"
       },
       {
        "Id": "2599349104",
        "Name": "Chemin_Herbe",
        "ObjectPath": "\\Switches\\Default Work Unit\\Surface\\Chemin_Herbe",
        "GUID": "{6852FA3F-261D-4B83-B534-7AAA728C16F1}"
       },
       {
        "Id": "2004506704",
        "Name": "Chemin_Sans_Herbe",
        "ObjectPath": "\\Switches\\Default Work Unit\\Surface\\Chemin_Sans_Herbe",
        "GUID": "{20029B55-24A2-4667-8B41-6BCAC34E56BB}"
       },
       {
        "Id": "781390792",
        "Name": "Eau",
        "ObjectPath": "\\Switches\\Default Work Unit\\Surface\\Eau",
        "GUID": "{643428F2-29A9-4FC9-B969-CEDE8C99BE7A}"
       },
       {
        "Id": "1944232220",
        "Name": "Pont",
        "ObjectPath": "\\Switches\\Default Work Unit\\Surface\\Pont",
        "GUID": "{B6CEAA1C-EB80-4D73-A1CA-3A366A8AE32F}"
       }
      ]
     }
    ]
   }
  ]
 }
}